{
    "@class": "com.kony.gen.viz.model.component.KVizRichText",
    "DNDConfig": null,
    "__markedForDelete__": true,
    "__parentReadjusting__": false,
    "_height_": {
        "type": "string",
        "value": "100%"
    },
    "_margin_": [
        0,
        0,
        0,
        0
    ],
    "_padding_": [
        0,
        0,
        0,
        0
    ],
    "_right_": {
        "type": "string",
        "value": "10dp"
    },
    "_skin_": "s4b9c20bfd7e44b19a79439dd4712682",
    "_text_": "$31.50",
    "_width_": {
        "type": "ref",
        "value": "preferred"
    },
    "_wrapping_": 2,
    "canUpdateUI": true,
    "centery": {
        "type": "string",
        "value": "50%"
    },
    "containerweight": 100,
    "contentalignment": 6,
    "id": "rtxCheckoutTotal",
    "info": null,
    "isvisible": true,
    "kuid": "b55e94bcd5b942f9a55ea1dd86fdd57f",
    "name": "kony.ui.RichText",
    "parent": "flxCheckoutTotal",
    "pf": "frmPastOrderDetails",
    "wType": "RichText",
    "widgetalignment": 5,
    "zindex": 1
}