{
    "@class": "com.kony.gen.viz.model.component.KVizRichText",
    "DNDConfig": null,
    "__markedForDelete__": true,
    "__parentReadjusting__": false,
    "_height_": {
        "type": "string",
        "value": "100%"
    },
    "_margin_": [
        0,
        0,
        0,
        0
    ],
    "_padding_": [
        0,
        0,
        0,
        0
    ],
    "_right_": {
        "type": "string",
        "value": "10dp"
    },
    "_skin_": "s908eabffc714d46adb5bbea46d1f16c",
    "_text_": "$3.36",
    "_width_": {
        "type": "ref",
        "value": "preferred"
    },
    "_wrapping_": 2,
    "canUpdateUI": true,
    "centery": {
        "type": "string",
        "value": "50%"
    },
    "containerweight": 100,
    "contentalignment": 6,
    "id": "rtxCheckoutTaxes",
    "info": null,
    "isvisible": true,
    "kuid": "ddb5a770b8f344eda18a9a15359edaf3",
    "name": "kony.ui.RichText",
    "parent": "flxCartTaxes",
    "pf": "frmPastOrderDetails",
    "wType": "RichText",
    "widgetalignment": 5,
    "zindex": 1
}