{
  "background_color": "065ecbff",
  "bg_type": "one",
  "border_color": "000000ff",
  "border_style": "plain",
  "border_type": 0,
  "border_width": 0,
  "isDefaultSkin": false,
  "kuid": "sf6b1b4454ee4501a34667be5ce78424",
  "wType": "FlexContainer"
}