{
  "background_color": "00000000",
  "bg_type": "one",
  "border_color": "1d8ae400",
  "border_radius": 8,
  "border_style": "custom",
  "border_type": 0,
  "border_width": 1,
  "isDefaultSkin": false,
  "kuid": "s7fefe0379c74c6489043a261fe1375a",
  "wType": "FlexContainer"
}