{
  "background_color": "00000000",
  "bg_type": "one",
  "border_color": "1d8ae4ff",
  "border_radius": 8,
  "border_style": "custom",
  "border_type": 0,
  "border_width": 1,
  "isDefaultSkin": false,
  "kuid": "s09acb1589c341ae9f852ee9628ad3c8",
  "wType": "FlexContainer"
}