{
  "background_color": "065ecbff",
  "bg_type": "one",
  "border_color": "00000000",
  "border_radius": 60,
  "border_style": "custom",
  "border_type": 0,
  "border_width": 1,
  "isDefaultSkin": false,
  "kuid": "sd86b57727884516bab3ebadf2978d8e",
  "wType": "FlexContainer"
}