{
    "@class": "com.kony.gen.viz.model.component.KVizButton",
    "DNDConfig": null,
    "__parentReadjusting__": false,
    "_height_": {
        "type": "string",
        "value": "50dp"
    },
    "_left_": {
        "type": "number",
        "value": "0"
    },
    "_margin_": [
        6,
        6,
        6,
        6
    ],
    "_padding_": [
        0,
        0,
        0,
        0
    ],
    "_skin_": "s0c5e414eb3044d8a23c9409f78eba3a",
    "_text_": "Details",
    "_top_": {
        "type": "string",
        "value": "0dp"
    },
    "_width_": {
        "type": "string",
        "value": "50%"
    },
    "canUpdateUI": true,
    "containerweight": 100,
    "contentalignment": 5,
    "displaytext": true,
    "focusskin": "sd71893da2ec4a31951c3ebf1ec290f5",
    "id": "btnLocationDetails",
    "info": null,
    "isvisible": true,
    "kuid": "d58d6988340c419892e4efeadf076815",
    "name": "kony.ui.Button",
    "parent": "flxLocationOptionBtns",
    "pf": "frmHome",
    "wType": "Button",
    "zindex": 1
}