{
    "DNDConfig": null,
    "__parentReadjusting__": false,
    "_height_": {
        "type": "string",
        "value": "100%"
    },
    "_left_": {
        "type": "string",
        "value": "0dp"
    },
    "_margin_": [
        0,
        0,
        0,
        0
    ],
    "_orientation_": 6,
    "_padding_": [
        0,
        0,
        0,
        0
    ],
    "_percent_": true,
    "_skin_": "s225f8be16aa439dbc596ed9f5dd8968",
    "_top_": {
        "type": "string",
        "value": "0dp"
    },
    "_width_": {
        "type": "string",
        "value": "100%"
    },
    "allboxes": [],
    "autogrowmode": 0,
    "canUpdateUI": true,
    "children": [
        "CopylblReward0bc76d479281942",
        "CopylblRewardInfo0b1aecfca60ed4c",
        "CopylblRewardExpDate0aae022c36c454a",
        "CopybtnRedeemReward0c3d20f8b289046"
    ],
    "clipbounds": true,
    "containerweight": 100,
    "enablescrolling": true,
    "id": "CopyflxRewardsContainer0a5e0e06b49af47",
    "info": null,
    "isvisible": true,
    "kuid": "cb3ab3b79c12448487ea270ce54cc34e",
    "layouttype": 2,
    "name": "kony.ui.FlexContainer",
    "parent": "flxReward2",
    "pf": "frmHome",
    "snapgridsize": 10,
    "snaptogrid": true,
    "wType": "FlexContainer",
    "widgetalignment": 1,
    "zindex": 1
}