{
    "@class": "com.kony.gen.viz.model.component.KVizImage2",
    "DNDConfig": null,
    "__parentReadjusting__": false,
    "_base64_": null,
    "_height_": {
        "type": "string",
        "value": "22dp"
    },
    "_margin_": [
        0,
        0,
        0,
        0
    ],
    "_padding_": [
        0,
        0,
        0,
        0
    ],
    "_right_": {
        "type": "number",
        "value": "10"
    },
    "_skin_": "sc9083656d444fed881245d253e2481d",
    "_src_": "shopping_bag_icon.png",
    "_width_": {
        "type": "string",
        "value": "22dp"
    },
    "canUpdateUI": true,
    "centery": {
        "type": "string",
        "value": "50%"
    },
    "containerweight": 100,
    "context": {
        "channel": "mobile",
        "formID": "frmHome",
        "platform": "android",
        "templateType": "forms",
        "topLevelBox": null
    },
    "id": "imgBagIcon",
    "imagescalemode": 1,
    "info": null,
    "invokedProperty": "src",
    "isvisible": true,
    "kuid": "cc0006878c7a4e4385b39e10e13643fd",
    "name": "kony.ui.Image2",
    "parent": "flxCartBtn",
    "pf": "frmHome",
    "srcType": 1,
    "wType": "Image",
    "widgetalignment": 5,
    "zindex": 1
}