{
    "@class": "com.kony.gen.viz.model.component.KVizRichText",
    "DNDConfig": null,
    "__markedForDelete__": true,
    "__parentReadjusting__": false,
    "_height_": {
        "type": "string",
        "value": "100%"
    },
    "_margin_": [
        0,
        0,
        0,
        0
    ],
    "_padding_": [
        0,
        0,
        1,
        0
    ],
    "_right_": {
        "type": "string",
        "value": "10dp"
    },
    "_skin_": "s908eabffc714d46adb5bbea46d1f16c",
    "_text_": "-$0",
    "_width_": {
        "type": "string",
        "value": "40%"
    },
    "_wrapping_": 2,
    "canUpdateUI": true,
    "centery": {
        "type": "string",
        "value": "50%"
    },
    "containerweight": 100,
    "contentalignment": 6,
    "id": "rtxCheckouTotalDiscount",
    "info": null,
    "isvisible": true,
    "kuid": "e8017ca7ca2240cf8ed7841f6ca9cc95",
    "name": "kony.ui.RichText",
    "paddinginpixel": false,
    "parent": "flxCheckouttSubtotal",
    "pf": "frmCart",
    "wType": "RichText",
    "widgetalignment": 5,
    "zindex": 1
}