{
    "DNDConfig": null,
    "_height_": {
        "type": "string",
        "value": "240dp"
    },
    "_margin_": [
        0,
        0,
        0,
        0
    ],
    "_orientation_": 6,
    "_padding_": [
        0,
        0,
        0,
        0
    ],
    "_percent_": true,
    "_skin_": "seea16387b3342c7ba060ee333848489",
    "allboxes": [],
    "autogrowmode": 0,
    "canUpdateUI": true,
    "children": [
        "imgProductImage"
    ],
    "clipbounds": true,
    "containerId": true,
    "containerweight": 100,
    "enablescrolling": true,
    "id": "flxProductImageContainer",
    "info": null,
    "isTemplate": true,
    "isvisible": true,
    "kuid": "ec1f9341da0043d0892fc6f8498d0739",
    "layouttype": 2,
    "name": "kony.ui.FlexContainer",
    "parent": "tempProductImages",
    "pf": "tempProductImages",
    "snapgridsize": 10,
    "snaptogrid": true,
    "wType": "FlexContainer",
    "widgetalignment": 4
}