{
    "AS_FlexContainer_d5ab43f48ef2464ab0037ac800462f12": {
        "id": "AS_FlexContainer_d5ab43f48ef2464ab0037ac800462f12",
        "type": "ACTION_SEQUENCE",
        "params": [{
            "datatype": "collection",
            "name": "eventobject"
        }],
        "language": "js",
        "actions": [{
            "id": "INVOKE_FUNCTION__onClick_ad098173b2a949c3b742ab482c278d93",
            "type": "INVOKE_FUNCTION",
            "sequenceKUID": "popupToggle",
            "display": "popupToggle",
            "inputparams": [],
            "callbackType": null,
            "disabled": null
        }]
    }
}