{
    "AS_Form_g6b55da8bada4c46bd189c5209124ab3": {
        "id": "AS_Form_g6b55da8bada4c46bd189c5209124ab3",
        "type": "ACTION_SEQUENCE",
        "params": [{
            "datatype": "collection",
            "name": "eventobject"
        }],
        "contextObj": {
            "name": "frmScanOverlay",
            "type": "forms",
            "platform": "",
            "KUID": "de1408f340244a4bb407d96d76645f3d"
        },
        "language": "js",
        "actions": []
    }
}