{
    "AS_FlexContainer_jed6008d751d40c1a933f4a3f2eb0b7a": {
        "id": "AS_FlexContainer_jed6008d751d40c1a933f4a3f2eb0b7a",
        "type": "ACTION_SEQUENCE",
        "params": [{
            "datatype": "collection",
            "name": "eventobject"
        }],
        "contextObj": {
            "name": "frmHome",
            "type": "forms",
            "platform": "",
            "KUID": "fc943f081c884fe2a983e2de2a348a38"
        },
        "language": "js",
        "actions": [{
            "id": "INVOKE_FUNCTION___cc7bc9bd581947ddaee640dbfbea0366",
            "type": "INVOKE_FUNCTION",
            "sequenceKUID": "menuToggleOn",
            "display": "menuToggleOn",
            "inputparams": [],
            "parentId": null,
            "callbackType": null,
            "disabled": null
        }]
    }
}