{
    "AS_FlexContainer_dd8961c0622749e595bc8058f3efc748": {
        "id": "AS_FlexContainer_dd8961c0622749e595bc8058f3efc748",
        "type": "ACTION_SEQUENCE",
        "params": [{
            "datatype": "collection",
            "name": "eventobject"
        }, {
            "datatype": "collection",
            "name": "context"
        }],
        "contextObj": {
            "name": "tempCheckoutItemsOld",
            "type": "templates",
            "platform": null,
            "KUID": "de9db5ade8404149b2a292327b9874a3"
        },
        "language": "js",
        "actions": [{
            "id": "NAVIGATE_TO_FORM__onClick_cfd271fa17df4083bec8f45d9c3f3464",
            "type": "NAVIGATE_TO_FORM",
            "formId": "frmProductDetail",
            "formKUID": "ha4d9b397f5e431b883cdfdcc75ae95c",
            "mappings": {},
            "mappingsOrder": [],
            "parentId": "",
            "callbackType": null,
            "enableMappingEditor": true
        }]
    }
}