{
    "AS_FlexContainer_a016ed172daa4e0fa28988811bb78d8b": {
        "id": "AS_FlexContainer_a016ed172daa4e0fa28988811bb78d8b",
        "type": "ACTION_SEQUENCE",
        "params": [{
            "datatype": "collection",
            "name": "eventobject"
        }],
        "contextObj": {
            "name": "frmConfirmation",
            "type": "forms",
            "platform": "",
            "KUID": "b2fbc4176f294af588b8b22f8407f3e3"
        },
        "language": "js",
        "actions": [{
            "id": "INVOKE_FUNCTION___a3731bcb0d534213a71c51d44adb0471",
            "type": "INVOKE_FUNCTION",
            "sequenceKUID": "paymentCompleted",
            "display": "paymentCompleted",
            "inputparams": [],
            "parentId": null,
            "callbackType": null,
            "disabled": null
        }]
    }
}