{
    "AS_FlexContainer_be7c32ec57c442bf8f7e2dd3a2fd1f1e": {
        "id": "AS_FlexContainer_be7c32ec57c442bf8f7e2dd3a2fd1f1e",
        "type": "ACTION_SEQUENCE",
        "params": [{
            "datatype": "collection",
            "name": "eventobject"
        }],
        "contextObj": {
            "name": "frmHome",
            "type": "forms",
            "platform": "",
            "KUID": "fc943f081c884fe2a983e2de2a348a38"
        },
        "language": "js",
        "actions": [{
            "id": "INVOKE_FUNCTION___e8a97a20d4f44729af029ee976c0ac7d",
            "type": "INVOKE_FUNCTION",
            "sequenceKUID": "logoutAnim",
            "display": "logoutAnim",
            "inputparams": [],
            "parentId": null,
            "callbackType": null,
            "disabled": null
        }]
    }
}