{
    "AS_Form_f9da0b8f1ceb46d4837801b04b67f2ae": {
        "id": "AS_Form_f9da0b8f1ceb46d4837801b04b67f2ae",
        "type": "ACTION_SEQUENCE",
        "params": [{
            "datatype": "collection",
            "name": "eventobject"
        }],
        "contextObj": {
            "name": "frmHome",
            "type": "forms",
            "platform": "",
            "KUID": "gc2244b01f3140a98b92b5fa79ea2559"
        },
        "language": "js",
        "actions": [{
            "id": "INVOKE_FUNCTION___be43ac7f2fff4cd1909b730d58cfa9ac",
            "type": "INVOKE_FUNCTION",
            "sequenceKUID": "slideInMessageInit",
            "display": "slideInMessageInit",
            "inputparams": [],
            "parentId": null,
            "callbackType": null,
            "disabled": null
        }]
    }
}