{
    "AS_FlexContainer_e9d0b357fb1740c09762b71d2f41178c": {
        "id": "AS_FlexContainer_e9d0b357fb1740c09762b71d2f41178c",
        "type": "ACTION_SEQUENCE",
        "params": [{
            "datatype": "collection",
            "name": "eventobject"
        }],
        "contextObj": {
            "name": "frmPastOrderDetails",
            "type": "forms",
            "platform": null,
            "KUID": "a4dd5e6ede504d6a97d0371e391caecf"
        },
        "language": "js",
        "actions": [{
            "id": "NAVIGATE_TO_FORM__onClick_h49bbb29c1ff4d19b7ea950110c425bf",
            "type": "NAVIGATE_TO_FORM",
            "formId": "frmPaymentMethod",
            "formKUID": "ab1b9a699ee84f1b90decce60e345dbc",
            "mappings": {},
            "mappingsOrder": [],
            "parentId": "",
            "callbackType": null,
            "enableMappingEditor": true
        }]
    }
}