{
    "AS_Form_b379d7284755461e87d11a8238eae42a": {
        "id": "AS_Form_b379d7284755461e87d11a8238eae42a",
        "type": "ACTION_SEQUENCE",
        "params": [{
            "datatype": "collection",
            "name": "eventobject"
        }],
        "contextObj": {
            "name": "frmHome",
            "type": "forms",
            "platform": "",
            "KUID": "fc943f081c884fe2a983e2de2a348a38"
        },
        "language": "js",
        "actions": [{
            "id": "INVOKE_FUNCTION___db873685afbd412391d3c1cfd4b289bc",
            "type": "INVOKE_FUNCTION",
            "sequenceKUID": "popupInit",
            "display": "popupInit",
            "inputparams": [],
            "parentId": null,
            "callbackType": null,
            "disabled": null
        }]
    }
}