{
    "AS_FlexContainer_c830d5c0d8cd4ccd82bf3f7c9f5d8db7": {
        "id": "AS_FlexContainer_c830d5c0d8cd4ccd82bf3f7c9f5d8db7",
        "type": "ACTION_SEQUENCE",
        "params": [{
            "datatype": "collection",
            "name": "eventobject"
        }],
        "contextObj": {
            "name": "frmPastOrderDetails",
            "type": "forms",
            "platform": null,
            "KUID": "a4dd5e6ede504d6a97d0371e391caecf"
        },
        "language": "js",
        "actions": [{
            "id": "NAVIGATE_TO_FORM__onClick_g560291336f0485ba5033c976f55109c",
            "type": "NAVIGATE_TO_FORM",
            "formId": "frmCart",
            "formKUID": "a227d341fdd749309e180d4c7c104394",
            "mappings": {},
            "mappingsOrder": [],
            "parentId": "",
            "callbackType": null,
            "enableMappingEditor": true
        }]
    }
}