{
    "AS_FlexContainer_jeff017dd7c1433b8fc7cc2ce091a04f": {
        "id": "AS_FlexContainer_jeff017dd7c1433b8fc7cc2ce091a04f",
        "type": "ACTION_SEQUENCE",
        "params": [{
            "datatype": "collection",
            "name": "eventobject"
        }],
        "contextObj": {
            "name": "frmCheckout",
            "type": "forms",
            "platform": "",
            "KUID": "c5175531b9f74e7e9ae4947519a20869"
        },
        "language": "js",
        "actions": [{
            "id": "NAVIGATE_TO_FORM___a95fa11a8a2a4cf8ae355f7d99b8ef26",
            "type": "NAVIGATE_TO_FORM",
            "formId": "frmPaymentMethod",
            "formKUID": "ab1b9a699ee84f1b90decce60e345dbc",
            "mappings": {},
            "mappingsOrder": [],
            "parentId": "",
            "callbackType": null,
            "enableMappingEditor": true
        }]
    }
}