{
    "AS_FlexContainer_jed5bcfbe59845f6acf9c0f752917276": {
        "id": "AS_FlexContainer_jed5bcfbe59845f6acf9c0f752917276",
        "type": "ACTION_SEQUENCE",
        "params": [{
            "datatype": "collection",
            "name": "eventobject"
        }],
        "contextObj": {
            "name": "frmCart",
            "type": "forms",
            "platform": "",
            "KUID": "a227d341fdd749309e180d4c7c104394"
        },
        "language": "js",
        "actions": [{
            "id": "INVOKE_FUNCTION___a869580459b749f4bf8d7c94da90615f",
            "type": "INVOKE_FUNCTION",
            "sequenceKUID": "backBtn",
            "display": "backBtn",
            "inputparams": [],
            "parentId": null,
            "callbackType": null,
            "disabled": true
        }, {
            "id": "NAVIGATE_TO_FORM___hd2c3062b38e41a0a747c35b2128ace3",
            "type": "NAVIGATE_TO_FORM",
            "formId": "frmHome",
            "formKUID": "fc943f081c884fe2a983e2de2a348a38",
            "mappings": {},
            "mappingsOrder": [],
            "parentId": "",
            "callbackType": null,
            "enableMappingEditor": true
        }]
    }
}