{
    "AS_Segment_a5c9330060d24816b3bf28ca7ad0cfd4": {
        "id": "AS_Segment_a5c9330060d24816b3bf28ca7ad0cfd4",
        "type": "ACTION_SEQUENCE",
        "params": [{
            "datatype": "collection",
            "name": "eventobject"
        }, {
            "datatype": "number",
            "name": "sectionNumber"
        }, {
            "datatype": "number",
            "name": "rowNumber"
        }],
        "contextObj": {
            "name": "frmAccount",
            "type": "forms",
            "platform": null,
            "KUID": "d9914e6afa2c49dabdb26128f7dfe775"
        },
        "language": "js",
        "actions": [{
            "id": "INVOKE_FUNCTION__onRowClick_bda8110bb3cc4374b3ca8a68122f5a10",
            "type": "INVOKE_FUNCTION",
            "sequenceKUID": "searchLocation",
            "display": "searchLocation",
            "inputparams": [],
            "callbackType": null,
            "disabled": null
        }, {
            "id": "INVOKE_FUNCTION__onRowClick_bb6ea66132df4f389cfb52e857c0671f",
            "type": "INVOKE_FUNCTION",
            "sequenceKUID": "locationSelected",
            "display": "locationSelected",
            "inputparams": [],
            "callbackType": null,
            "disabled": null
        }]
    }
}