{
    "AS_Button_eac745ea5ba54e6bb2e86e7666338131": {
        "id": "AS_Button_eac745ea5ba54e6bb2e86e7666338131",
        "type": "ACTION_SEQUENCE",
        "params": [{
            "datatype": "collection",
            "name": "eventobject"
        }],
        "language": "js",
        "actions": [{
            "id": "INVOKE_FUNCTION___jd30dc7a6c4b4fc5ade7d2865354c262",
            "type": "INVOKE_FUNCTION",
            "sequenceKUID": "searchLocation",
            "display": "searchLocation",
            "inputparams": [],
            "parentId": null,
            "callbackType": null,
            "disabled": null
        }, {
            "id": "INVOKE_FUNCTION__onClick_gb8a0820e2724a0e889322b4a5770235",
            "type": "INVOKE_FUNCTION",
            "sequenceKUID": "locationSelected",
            "display": "locationSelected",
            "inputparams": [],
            "callbackType": null,
            "disabled": null
        }]
    }
}