{
    "AS_Button_aed4cf7350834224a6a6bbeb834eb475": {
        "id": "AS_Button_aed4cf7350834224a6a6bbeb834eb475",
        "type": "ACTION_SEQUENCE",
        "params": [{
            "datatype": "collection",
            "name": "eventobject"
        }],
        "language": "js",
        "actions": [{
            "id": "INVOKE_FUNCTION__onClick_f52010f2bd3746fb873b05eac6ffd3e8",
            "type": "INVOKE_FUNCTION",
            "sequenceKUID": "searchLocation",
            "display": "searchLocation",
            "inputparams": [],
            "callbackType": null,
            "disabled": null
        }]
    }
}