{
    "AS_Button_c2a3e610df804defb66e05b05a8bb3ec": {
        "id": "AS_Button_c2a3e610df804defb66e05b05a8bb3ec",
        "type": "ACTION_SEQUENCE",
        "params": [{
            "datatype": "collection",
            "name": "eventobject"
        }],
        "language": "js",
        "actions": [{
            "id": "INVOKE_FUNCTION__onClick_f849a04bc2f541a395e49f71c4735ed4",
            "type": "INVOKE_FUNCTION",
            "sequenceKUID": "locationYes",
            "display": "locationYes",
            "inputparams": [],
            "callbackType": null,
            "disabled": null
        }]
    }
}