{
    "AS_FlexContainer_e6d3a53b055b44a3bba46d2c9ee8f380": {
        "id": "AS_FlexContainer_e6d3a53b055b44a3bba46d2c9ee8f380",
        "type": "ACTION_SEQUENCE",
        "params": [{
            "datatype": "collection",
            "name": "eventobject"
        }],
        "contextObj": {
            "name": "frmCheckout",
            "type": "forms",
            "platform": "",
            "KUID": "c5175531b9f74e7e9ae4947519a20869"
        },
        "language": "js",
        "actions": [{
            "id": "NAVIGATE_TO_FORM___f75c32e1aa65453588f1d29d1ee361ef",
            "type": "NAVIGATE_TO_FORM",
            "formId": "frmConfirmation",
            "formKUID": "b2fbc4176f294af588b8b22f8407f3e3",
            "mappings": {},
            "mappingsOrder": [],
            "parentId": "",
            "callbackType": null,
            "enableMappingEditor": true,
            "disabled": true
        }, {
            "id": "INVOKE_FUNCTION___fec9f202003f4c44a393e2df602aa3c1",
            "type": "INVOKE_FUNCTION",
            "sequenceKUID": "popupToggle",
            "display": "popupToggle",
            "inputparams": [],
            "parentId": null,
            "callbackType": null,
            "disabled": null
        }]
    }
}