{
    "AS_FlexContainer_c16403ff08fd44ffb9f2ec1bce40e29b": {
        "id": "AS_FlexContainer_c16403ff08fd44ffb9f2ec1bce40e29b",
        "type": "ACTION_SEQUENCE",
        "params": [{
            "datatype": "collection",
            "name": "eventobject"
        }],
        "language": "js",
        "actions": [{
            "id": "NAVIGATE_TO_FORM__onClick_b3a4f2313fc04cebbdbc3240fed128a4",
            "type": "NAVIGATE_TO_FORM",
            "formId": "frmCheckout",
            "formKUID": "c5175531b9f74e7e9ae4947519a20869",
            "mappings": {},
            "mappingsOrder": [],
            "parentId": "",
            "callbackType": null,
            "enableMappingEditor": true
        }]
    }
}