{
    "AS_FlexContainer_e02a57a19dba42e59b12054748bc0a37": {
        "id": "AS_FlexContainer_e02a57a19dba42e59b12054748bc0a37",
        "type": "ACTION_SEQUENCE",
        "params": [{
            "datatype": "collection",
            "name": "eventobject"
        }],
        "contextObj": {
            "name": "frmAccount",
            "type": "forms",
            "platform": null,
            "KUID": "d9914e6afa2c49dabdb26128f7dfe775"
        },
        "language": "js",
        "actions": [{
            "id": "INVOKE_FUNCTION__onClick_efbdbebbf5684f5a8a1181d12a1569e7",
            "type": "INVOKE_FUNCTION",
            "sequenceKUID": "popupToggle",
            "display": "popupToggle",
            "inputparams": [],
            "callbackType": null,
            "disabled": null
        }]
    }
}