{
    "AS_Form_ea3f5216ec1f4d1b8f22177f1e4ebec6": {
        "id": "AS_Form_ea3f5216ec1f4d1b8f22177f1e4ebec6",
        "type": "ACTION_SEQUENCE",
        "params": [{
            "datatype": "collection",
            "name": "eventobject"
        }],
        "contextObj": {
            "name": "frmHome",
            "type": "forms",
            "platform": "",
            "KUID": "fc943f081c884fe2a983e2de2a348a38"
        },
        "language": "js",
        "actions": []
    }
}