{
    "AS_FlexContainer_e6f3011cbbd349fe8a903e8e2b23906f": {
        "id": "AS_FlexContainer_e6f3011cbbd349fe8a903e8e2b23906f",
        "type": "ACTION_SEQUENCE",
        "params": [{
            "datatype": "collection",
            "name": "eventobject"
        }],
        "contextObj": {
            "name": "frmHome",
            "type": "forms",
            "platform": "",
            "KUID": "fc943f081c884fe2a983e2de2a348a38"
        },
        "language": "js",
        "actions": [{
            "id": "INVOKE_FUNCTION___j30865bb391c4fca971d0cf0d0c604ef",
            "type": "INVOKE_FUNCTION",
            "sequenceKUID": "menuToggleOff",
            "display": "menuToggleOff",
            "inputparams": [],
            "parentId": null,
            "callbackType": null,
            "disabled": null
        }]
    }
}