{
    "AS_FlexContainer_bf909f460b7f49c6ab56ca48f98b060c": {
        "id": "AS_FlexContainer_bf909f460b7f49c6ab56ca48f98b060c",
        "type": "ACTION_SEQUENCE",
        "params": [{
            "datatype": "collection",
            "name": "eventobject"
        }],
        "contextObj": {
            "name": "frmPaymentMethod",
            "type": "forms",
            "platform": null,
            "KUID": "ab1b9a699ee84f1b90decce60e345dbc"
        },
        "language": "js",
        "actions": [{
            "id": "INVOKE_FUNCTION__onClick_ab76690c436c48b8a5aa6d2719f0115e",
            "type": "INVOKE_FUNCTION",
            "sequenceKUID": "backBtn",
            "display": "backBtn",
            "inputparams": [],
            "callbackType": null,
            "disabled": false
        }]
    }
}