{
    "AS_Form_ec459791567e43aa847750ccd4142593": {
        "id": "AS_Form_ec459791567e43aa847750ccd4142593",
        "type": "ACTION_SEQUENCE",
        "params": [{
            "datatype": "collection",
            "name": "eventobject"
        }],
        "contextObj": {
            "name": "frmScanOverlay",
            "type": "forms",
            "platform": "",
            "KUID": "de1408f340244a4bb407d96d76645f3d"
        },
        "language": "js",
        "actions": [{
            "id": "INVOKE_FUNCTION___db18cbf5d5cf4604951e7d89025aca65",
            "type": "INVOKE_FUNCTION",
            "sequenceKUID": "scanInit",
            "display": "scanInit",
            "inputparams": [],
            "parentId": null,
            "callbackType": null,
            "disabled": null
        }]
    }
}