{
    "DNDConfig": null,
    "__parentReadjusting__": false,
    "_height_": {
        "type": "string",
        "value": "100%"
    },
    "_margin_": [
        0,
        0,
        0,
        0
    ],
    "_orientation_": 6,
    "_padding_": [
        0,
        0,
        0,
        0
    ],
    "_percent_": true,
    "_right_": {
        "type": "number",
        "value": "0"
    },
    "_skin_": "seea16387b3342c7ba060ee333848489",
    "_top_": {
        "type": "string",
        "value": "0dp"
    },
    "_width_": {
        "type": "string",
        "value": "80dp"
    },
    "allboxes": [],
    "autogrowmode": 0,
    "canUpdateUI": true,
    "children": [
        "lblCheckoutBtn"
    ],
    "clipbounds": true,
    "containerweight": 100,
    "enablescrolling": true,
    "id": "flxCheckOut",
    "info": null,
    "isvisible": false,
    "kuid": "d851c981db954bd9a8b821a4630f9fec",
    "layouttype": 2,
    "name": "kony.ui.FlexContainer",
    "parent": "flxHeader",
    "pf": "frmPaymentMethod",
    "snapgridsize": 10,
    "snaptogrid": true,
    "vizProps": {
        "hide": false
    },
    "wType": "FlexContainer",
    "widgetalignment": 1,
    "zindex": 1
}